.......................
----------------------------------------------------------------------
Ran 23 tests in 82.508s

OK
Name             Stmts   Miss Branch BrPart  Cover   Missing
------------------------------------------------------------
Collatz.py          34      0     14      0   100%
TestCollatz.py      93      0      0      0   100%
------------------------------------------------------------
TOTAL              127      0     14      0   100%
