$ cat TestCollatz.out
.........................
----------------------------------------------------------------------
Ran 25 tests in 0.210s

OK
Name             Stmts   Miss Branch BrPart  Cover   Missing
------------------------------------------------------------
Collatz.py          56      0     28      0   100%
TestCollatz.py     113      0      0      0   100%
------------------------------------------------------------
TOTAL              169      0     28      0   100%
